[
  {
    "title": "This is my first note",
    "description": "first note description",
    "userId": "u-1",
    "dueDate": "2024-04-08"
  },
  {
    "title": "This is my second note",
    "description": "second note description",
    "userId": "u-2",
    "dueDate": "2024-04-10"
  },
  {
    "title": "Test",
    "description": "Description",
    "userId": "user123",
    "dueDate": "2024-04-05"
  }
]